…
Os dados utilizados para o exercício são de um artigo científico de controle (%) de biótipo de Amaranthus tuberculatus (vou chamar de caruru aqui) com herbicidas em pós-emergência. Os nomes dos herbicidas foram alterados para A, B, C, D e E.

Copie cole os seguintes códigos abaixo e execute no R.

df_path <- getURL("https://raw.githubusercontent.com/maxwelco/General_codes/master/anova-beta/data/control.csv")

dado <- read_csv(df_path)

Após executar os codigos acima, os dados deve estar armazenado no nome dado.

dado

## # A tibble: 30 x 4
##     year herbicide   rep control
##    <dbl> <chr>     <dbl>   <dbl>
##  1  2013 A             1    0.99
##  2  2013 A             2    0.97
##  3  2013 A             3    0.96
##  4  2013 B             1    0.99
##  5  2013 B             2    0.99
##  6  2013 B             3    0.97
##  7  2013 C             1    0.95
##  8  2013 C             2    0.9 
##  9  2013 C             3    0.95
## 10  2013 D             1    0.5 
## # … with 20 more rows
…
